{
    "config": {
        "document-actions": [{
            "key": "create-sample-space",
            "title": "Create Sample Space",
            "module": "sample/actions/samplerename/create-sample-space",
            "iconClass": "fa fa-plus",
            "action": "create-sample-space",
            "allowPermission": [
                "update"
            ]
        }]
    }
}
